{
  "name": "La Ética en el cuidado de sí y del otro I",
  "image": "portada.jpg",
  "temas": [
    {
      "tema": "Introducción",
      "subtemas": [      
        {
          "tema": "UAC III",
          "url": "index.html"
        },
        {
          "tema": "Multidisciplinariedad",
          "url": "multidisciplinariedad.html"
        },
        {
          "tema": "Evaluación diagnóstica",
          "url": "evaluacion_diagnostica.html"
        },
        {
          "tema": "Situación de aprendizaje 3",
          "url": "situacion_de_aprendizaje.html"
        },
        {
          "tema": "Situación en contexto",
          "url": "situación_en_contexto.html"
        }
      ]
    },
    {
      "tema": "El cuidado de sí frente al cuidado del otro en la sexualidad",
      "subtemas": [
        {
          "tema": "El cuidado de sí frente al cuidado del otro en la sexualidad",
          "url": "tema1.0.0.html"
        },
        {
          "tema": "Actividad 1",
          "url": "tema1.0.0A1.html"
        },
        {
          "tema": "Actividad 2",
          "url": "tema1.0.0A2.html"
        },
        {
          "tema": "Noviazgo",
          "url": "tema1.1.0.html"
        },
        {
          "tema": "Actividad 3",
          "url": "tema1.1.0A3.html"
        },
        {
          "tema": "¿Cómo se forma la identidad sexual?",
          "url": "tema1.2.0.html"
        },
        {
          "tema": "Actividad 4",
          "url": "tema1.2.0A4.html"
        },
        {
          "tema": "Actividad 5",
          "url": "tema1.2.0A5.html"
        },
        {
          "tema": "La autodeterminación en una interacción sexual",
          "url": "tema1.3.0.html"
        },
        {
          "tema": "Actividad 6",
          "url": "tema1.3.0A6.html"
        },
        {
          "tema": "Actividad 7",
          "url": "tema1.3.0A7.html"
        },
        {
          "tema": "La reproducción como una decisión",
          "url": "tema1.4.0.html"
        },
        {
          "tema": "Actividad 8",
          "url": "tema1.4.0A8.html"
        },
        {
          "tema": "Actividad 9",
          "url": "tema1.4.0A9.html"
        },
        {
          "tema": "Decisiones y consecuencias",
          "url": "tema1.4.0_dhs.html"
        },
        {
          "tema": "Diversidad de género y orientación sexual",
          "url": "tema1.5.0.html"
        },
        {
          "tema": "Actividad 10",
          "url": "tema1.5.0A10.html"
        },
        {
          "tema": "Prevención y salud sexual",
          "url": "tema1.6.0.html"
        },
        {
          "tema": "Actividad 11",
          "url": "tema1.6.0A11.html"
        },
        {
          "tema": "Actividad 12",
          "url": "tema1.6.0A12.html"
        },
        {
          "tema": "Actividad multidisciplinar",
          "url": "tema1.6.0_actividad_multidisciplinar.html"
        },
        {
          "tema": "Embarazo planificado",
          "url": "tema1.6.0_dhs.html"
        },
        {
          "tema": "Fomento a la lectura",
          "url": "tema1.6.0_lectura.html"
        },
        {
          "tema": "Oriéntate",
          "url": "tema1.6.0_orientate.html"
        },
        {
          "tema": "Evaluación de situación de aprendizaje",
          "url": "tema1.6.0_situacion_de_aprendizaje.html"
        },
        {
          "tema": "Evaluación objetiva",
          "url": "tema1.6.0_evaluacion_objetiva.html"
        },
        {
          "tema": "Metacognición",
          "url": "tema1.6.0_metacognicion.html"
        },
        {
          "tema": "Evaluación de saberes",
          "url": "tema1.6.0_evaluacion_de_saberes.html"
        },        
        {
          "tema": "Prueba tipo PLANEA",
          "url": "tema1.6.0_prueba_planea.html"
        },
        {
          "tema": "Bibliografía",
          "url": "bibliografia.html"
        }
      ]
    }
  ]
}